{
  "type": "minecraft:crafting_shaped",
  "pattern": [
    "0",
    "1",
    "2"
  ],
  "key": {
    "0": {
      "item": "mylittlestorymod:silver_ingot"
    },
    "1": {
      "item": "mylittlestorymod:silver_ingot"
    },
    "2": {
      "item": "minecraft:stick"
    }
  },
  "result": {
    "item": "mylittlestorymod:silver_sword",
    "count": 1
  }
}