{
  "_fv": 47,
  "_type": "tool",
  "definition": {
    "toolType": "Pickaxe",
    "renderType": 0,
    "texture": "silvertools_pickaxe",
    "customModelName": "Normal",
    "name": "SilverTools Pickaxe",
    "specialInfo": [],
    "creativeTab": {
      "value": "CUSTOM:MyLittleStoryMod"
    },
    "harvestLevel": 3,
    "efficiency": 6.0,
    "attackSpeed": 4.5,
    "enchantability": 14,
    "damageVsEntity": 2.0,
    "usageCount": 250,
    "blocksAffected": [],
    "hasGlow": false,
    "repairItems": [
      {
        "value": "CUSTOM:SilverIngot"
      }
    ],
    "immuneToFire": false,
    "stayInGridWhenCrafting": false,
    "damageOnCrafting": false
  }
}