{
  "parent": "block/cube",
  "textures": {
    "down": "mylittlestorymod:blocks/metal_block",
    "up": "mylittlestorymod:blocks/metal_block",
    "north": "mylittlestorymod:blocks/metal_block",
    "east": "mylittlestorymod:blocks/metal_block",
    "south": "mylittlestorymod:blocks/metal_block",
    "west": "mylittlestorymod:blocks/metal_block",
    "particle": "mylittlestorymod:blocks/metal_block"
  },
  "render_type": "solid"
}